{
   "printers_history": [
      {"printer_id":1, "status":1, "date":"01/08/20","time":"8:00"},
      {"printer_id":1, "status":1, "date":"01/08/20","time":"8:30"},
      {"printer_id":1, "status":0, "date":"01/08/20","time":"9:00"},
      {"printer_id":1, "status":0, "date":"01/08/20","time":"9:30"},
      {"printer_id":1, "status":1, "date":"01/08/20","time":"10:00"},
      {"printer_id":1, "status":1, "date":"01/08/20","time":"10:30"},
      {"printer_id":1, "status":1, "date":"01/08/20","time":"11:00"},
      {"printer_id":1, "status":1, "date":"01/08/20","time":"11:30"},
      {"printer_id":1, "status":1, "date":"01/08/20","time":"12:00"},
      {"printer_id":1, "status":1, "date":"01/08/20","time":"12:30"},
      {"printer_id":1, "status":0, "date":"01/08/20","time":"13:00"},
      {"printer_id":1, "status":1, "date":"01/08/20","time":"12:30"},
      {"printer_id":1, "status":1, "date":"01/08/20","time":"14:00"},
      {"printer_id":1, "status":1, "date":"01/08/20","time":"14:30"},
      {"printer_id":1, "status":1, "date":"01/08/20","time":"15:00"},
      {"printer_id":1, "status":1, "date":"01/08/20","time":"15:30"},
      {"printer_id":1, "status":0, "date":"01/08/20","time":"16:00"},

      {"printer_id":2, "status":0, "date":"01/08/20","time":"8:00"},
      {"printer_id":2, "status":0, "date":"01/08/20","time":"8:30"},
      {"printer_id":2, "status":0, "date":"01/08/20","time":"9:00"},
      {"printer_id":2, "status":1, "date":"01/08/20","time":"9:30"},
      {"printer_id":2, "status":1, "date":"01/08/20","time":"10:00"},
      {"printer_id":2, "status":1, "date":"01/08/20","time":"10:30"},
      {"printer_id":2, "status":1, "date":"01/08/20","time":"11:00"},
      {"printer_id":2, "status":1, "date":"01/08/20","time":"11:30"},
      {"printer_id":2, "status":1, "date":"01/08/20","time":"12:00"},
      {"printer_id":2, "status":1, "date":"01/08/20","time":"12:30"},
      {"printer_id":2, "status":1, "date":"01/08/20","time":"13:00"},
      {"printer_id":2, "status":1, "date":"01/08/20","time":"12:30"},
      {"printer_id":2, "status":1, "date":"01/08/20","time":"14:00"},
      {"printer_id":2, "status":0, "date":"01/08/20","time":"14:30"},
      {"printer_id":2, "status":1, "date":"01/08/20","time":"15:00"},
      {"printer_id":2, "status":1, "date":"01/08/20","time":"15:30"},
      {"printer_id":2, "status":1, "date":"01/08/20","time":"16:00"},

      {"printer_id":3, "status":1, "date":"01/08/20","time":"8:00"},
      {"printer_id":3, "status":1, "date":"01/08/20","time":"8:30"},
      {"printer_id":3, "status":1, "date":"01/08/20","time":"9:00"},
      {"printer_id":3, "status":1, "date":"01/08/20","time":"9:30"},
      {"printer_id":3, "status":1, "date":"01/08/20","time":"10:00"},
      {"printer_id":3, "status":1, "date":"01/08/20","time":"10:30"},
      {"printer_id":3, "status":1, "date":"01/08/20","time":"11:00"},
      {"printer_id":3, "status":1, "date":"01/08/20","time":"11:30"},
      {"printer_id":3, "status":1, "date":"01/08/20","time":"12:00"},
      {"printer_id":3, "status":1, "date":"01/08/20","time":"12:30"},
      {"printer_id":3, "status":1, "date":"01/08/20","time":"13:00"},
      {"printer_id":3, "status":1, "date":"01/08/20","time":"12:30"},
      {"printer_id":3, "status":1, "date":"01/08/20","time":"14:00"},
      {"printer_id":3, "status":1, "date":"01/08/20","time":"14:30"},
      {"printer_id":3, "status":1, "date":"01/08/20","time":"15:00"},
      {"printer_id":3, "status":1, "date":"01/08/20","time":"15:30"},
      {"printer_id":3, "status":1, "date":"01/08/20","time":"16:00"},

      {"printer_id":4, "status":1, "date":"01/08/20","time":"8:00"},
      {"printer_id":4, "status":3, "date":"01/08/20","time":"8:30"},
      {"printer_id":4, "status":3, "date":"01/08/20","time":"9:00"},
      {"printer_id":4, "status":3, "date":"01/08/20","time":"9:30"},
      {"printer_id":4, "status":3, "date":"01/08/20","time":"10:00"},
      {"printer_id":4, "status":3, "date":"01/08/20","time":"10:30"},
      {"printer_id":4, "status":3, "date":"01/08/20","time":"11:00"},
      {"printer_id":4, "status":3, "date":"01/08/20","time":"11:30"},
      {"printer_id":4, "status":3, "date":"01/08/20","time":"12:00"},
      {"printer_id":4, "status":3, "date":"01/08/20","time":"12:30"},
      {"printer_id":4, "status":3, "date":"01/08/20","time":"13:00"},
      {"printer_id":4, "status":3, "date":"01/08/20","time":"12:30"},
      {"printer_id":4, "status":3, "date":"01/08/20","time":"14:00"},
      {"printer_id":4, "status":3, "date":"01/08/20","time":"14:30"},
      {"printer_id":4, "status":3, "date":"01/08/20","time":"15:00"},
      {"printer_id":4, "status":3, "date":"01/08/20","time":"15:30"},
      {"printer_id":4, "status":3, "date":"01/08/20","time":"16:00"},

      {"printer_id":5, "status":1, "date":"01/08/20","time":"8:00"},
      {"printer_id":5, "status":1, "date":"01/08/20","time":"8:30"},
      {"printer_id":5, "status":1, "date":"01/08/20","time":"9:00"},
      {"printer_id":5, "status":1, "date":"01/08/20","time":"9:30"},
      {"printer_id":5, "status":1, "date":"01/08/20","time":"10:00"},
      {"printer_id":5, "status":1, "date":"01/08/20","time":"10:30"},
      {"printer_id":5, "status":1, "date":"01/08/20","time":"11:00"},
      {"printer_id":5, "status":1, "date":"01/08/20","time":"11:30"},
      {"printer_id":5, "status":1, "date":"01/08/20","time":"12:00"},
      {"printer_id":5, "status":2, "date":"01/08/20","time":"12:30"},
      {"printer_id":5, "status":2, "date":"01/08/20","time":"13:00"},
      {"printer_id":5, "status":2, "date":"01/08/20","time":"12:30"},
      {"printer_id":5, "status":2, "date":"01/08/20","time":"14:00"},
      {"printer_id":5, "status":2, "date":"01/08/20","time":"14:30"},
      {"printer_id":5, "status":2, "date":"01/08/20","time":"15:00"},
      {"printer_id":5, "status":2, "date":"01/08/20","time":"15:30"},
      {"printer_id":5, "status":2, "date":"01/08/20","time":"16:00"},

      {"printer_id":6, "status":1, "date":"01/08/20","time":"8:00"},
      {"printer_id":6, "status":1, "date":"01/08/20","time":"8:30"},
      {"printer_id":6, "status":1, "date":"01/08/20","time":"9:00"},
      {"printer_id":6, "status":1, "date":"01/08/20","time":"9:30"},
      {"printer_id":6, "status":1, "date":"01/08/20","time":"10:00"},
      {"printer_id":6, "status":1, "date":"01/08/20","time":"10:30"},
      {"printer_id":6, "status":1, "date":"01/08/20","time":"11:00"},
      {"printer_id":6, "status":1, "date":"01/08/20","time":"11:30"},
      {"printer_id":6, "status":1, "date":"01/08/20","time":"12:00"},
      {"printer_id":6, "status":1, "date":"01/08/20","time":"12:30"},
      {"printer_id":6, "status":1, "date":"01/08/20","time":"13:00"},
      {"printer_id":6, "status":1, "date":"01/08/20","time":"12:30"},
      {"printer_id":6, "status":1, "date":"01/08/20","time":"14:00"},
      {"printer_id":6, "status":1, "date":"01/08/20","time":"14:30"},
      {"printer_id":6, "status":1, "date":"01/08/20","time":"15:00"},
      {"printer_id":6, "status":1, "date":"01/08/20","time":"15:30"},
      {"printer_id":6, "status":1, "date":"01/08/20","time":"16:00"}


    ]
}
