{
  "printers": [
    {
      "id": 1,
      "name": "HP LaserJet Enterprise M608dn",
      "status": 0,
      "desc": "Lorem ipsum dolor sit amet, consectetur adipiscing elit, sed do eiusmod tempor incididunt ut labore et dolore magna aliqua. Ut enim ad minim veniam, quis nostrud exercitation ullamco laboris nisi ut aliquip ex ea commodo consequat. Duis aute irure dolor in reprehenderit in voluptate velit esse cillum dolore eu fugiat nulla pariatur. Excepteur sint occaecat cupidatat non proident, sunt in culpa qui officia deserunt mollit anim id est laborum.",
      "address_ip": "192.168.0.18",
      "location": "Piętro 1, Sala konferencyjna",
      "useColor": 0,
      "printFormat": "A4"
    },
    {
      "id": 2,
      "name": "Brother HL-L6400DW",
      "status": 1,
      "desc": "Lorem ipsum dolor sit amet, consectetur adipiscing elit, sed do eiusmod tempor incididunt ut labore et dolore magna aliqua. Ut enim ad minim veniam, quis nostrud exercitation ullamco laboris nisi ut aliquip ex ea commodo consequat. Duis aute irure dolor in reprehenderit in voluptate velit esse cillum dolore eu fugiat nulla pariatur. Excepteur sint occaecat cupidatat non proident, sunt in culpa qui officia deserunt mollit anim id est laborum.",
      "address_ip": "192.168.10.02",
      "location": "Piętro 1, Recepcja",
      "useColor": 0,
      "printFormat": "A4"

    },
    {
      "id": 3,
      "name": "HP Color LaserJet Pro M454dw",
      "status": 1,
      "desc": "Lorem ipsum dolor sit amet, consectetur adipiscing elit, sed do eiusmod tempor incididunt ut labore et dolore magna aliqua. Ut enim ad minim veniam, quis nostrud exercitation ullamco laboris nisi ut aliquip ex ea commodo consequat. Duis aute irure dolor in reprehenderit in voluptate velit esse cillum dolore eu fugiat nulla pariatur. Excepteur sint occaecat cupidatat non proident, sunt in culpa qui officia deserunt mollit anim id est laborum.",
      "address_ip": "192.168.12.03",
      "location": "Piętro 2, Pokój 201",
      "useColor": 1,
      "printFormat": "A4"
    },
    {
      "id": 4,
      "name": "Lexmark MS521dn",
      "status": 3,
      "desc": "Lorem ipsum dolor sit amet, consectetur adipiscing elit, sed do eiusmod tempor incididunt ut labore et dolore magna aliqua. Ut enim ad minim veniam, quis nostrud exercitation ullamco laboris nisi ut aliquip ex ea commodo consequat. Duis aute irure dolor in reprehenderit in voluptate velit esse cillum dolore eu fugiat nulla pariatur. Excepteur sint occaecat cupidatat non proident, sunt in culpa qui officia deserunt mollit anim id est laborum.",
      "address_ip": "192.168.03.04",
      "location": "Piętro 1, Pokój 205",
      "useColor": 0,
      "printFormat": "A4"
    },
    {
      "id": 5,
      "name": "Lexmark C3224dw",
      "status": 2,
      "desc": "Lorem ipsum dolor sit amet, consectetur adipiscing elit, sed do eiusmod tempor incididunt ut labore et dolore magna aliqua. Ut enim ad minim veniam, quis nostrud exercitation ullamco laboris nisi ut aliquip ex ea commodo consequat. Duis aute irure dolor in reprehenderit in voluptate velit esse cillum dolore eu fugiat nulla pariatur. Excepteur sint occaecat cupidatat non proident, sunt in culpa qui officia deserunt mollit anim id est laborum.",
      "address_ip": "192.168.05.09",
      "location": "Piętro 4, Pokój 412",
      "useColor": 1,
      "printFormat": "A4"
    },
    {
      "id": 6,
      "name": "Canon i-SENSYS LBP352x",
      "status": 1,
      "desc": "Lorem ipsum dolor sit amet, consectetur adipiscing elit, sed do eiusmod tempor incididunt ut labore et dolore magna aliqua. Ut enim ad minim veniam, quis nostrud exercitation ullamco laboris nisi ut aliquip ex ea commodo consequat. Duis aute irure dolor in reprehenderit in voluptate velit esse cillum dolore eu fugiat nulla pariatur. Excepteur sint occaecat cupidatat non proident, sunt in culpa qui officia deserunt mollit anim id est laborum.",
      "address_ip": "192.168.05.14",
      "location": "Piętro 3, Pokój 304",
      "useColor": 0,
      "printFormat": "A4"
    }
  ]
}
